lab1/iVerilog/rippleDown.vcd
$date
	Tue Jan 10 15:08:26 2017
$end
$version
	Icarus Verilog
$end
$timescale
	1s
$end
$scope module testBench $end
$var wire 1 ! rst $end
$var wire 4 " q [3:0] $end
$var wire 1 # clk $end
$scope module aTester $end
$var wire 4 $ qOut [3:0] $end
$var reg 1 # clk $end
$var reg 1 ! rst $end
$upscope $end
$scope module counter $end
$var wire 1 # clk $end
$var wire 1 ! rst $end
$var wire 4 % qOut [3:0] $end
$var wire 4 & Qbar [3:0] $end
$scope module ff0 $end
$var wire 1 ' D $end
$var wire 1 # clk $end
$var wire 1 ( qBar $end
$var wire 1 ! rst $end
$var reg 1 ) q $end
$upscope $end
$scope module ff1 $end
$var wire 1 * D $end
$var wire 1 + clk $end
$var wire 1 , qBar $end
$var wire 1 ! rst $end
$var reg 1 - q $end
$upscope $end
$scope module ff2 $end
$var wire 1 . D $end
$var wire 1 / clk $end
$var wire 1 0 qBar $end
$var wire 1 ! rst $end
$var reg 1 1 q $end
$upscope $end
$scope module ff3 $end
$var wire 1 2 D $end
$var wire 1 3 clk $end
$var wire 1 4 qBar $end
$var wire 1 ! rst $end
$var reg 1 5 q $end
$upscope $end
$upscope $end
$upscope $end
$enddefinitions $end
#0
$dumpvars
05
14
03
12
01
10
0/
1.
0-
1,
0+
1*
0)
1(
1'
b1111 &
b0 %
b0 $
0#
b0 "
0!
$end
#5
1#
#10
0#
#15
1#
#20
0#
#25
1#
#30
0#
#35
1#
#40
0#
#45
02
04
0.
15
00
13
0*
11
0,
1/
0'
1-
b0 &
0(
1+
b1111 "
b1111 $
b1111 %
1)
1#
1!
#50
0#
#55
1'
b1 &
1(
0+
b1110 "
b1110 $
b1110 %
0)
1#
#60
0#
#65
1*
1,
0/
0'
0-
b10 &
0(
1+
b1101 "
b1101 $
b1101 %
1)
1#
#70
0#
#75
1'
b11 &
1(
0+
b1100 "
b1100 $
b1100 %
0)
1#
#80
0#
#85
1.
10
03
0*
01
0,
1/
0'
1-
b100 &
0(
1+
b1011 "
b1011 $
b1011 %
1)
1#
#90
0#
#95
1'
b101 &
1(
0+
b1010 "
b1010 $
b1010 %
0)
1#
#100
0#
#105
1*
12
1,
0/
b1111 &
14
0-
b0 "
b0 $
b0 %
05
1#
0!
#110
0#
#115
1#
#120
0#
#125
02
04
0.
15
00
13
0*
11
0,
1/
0'
1-
b0 &
0(
1+
b1111 "
b1111 $
b1111 %
1)
1#
1!
#130
0#
#135
1'
b1 &
1(
0+
b1110 "
b1110 $
b1110 %
0)
1#
#140
0#
#145
1*
1,
0/
0'
0-
b10 &
0(
1+
b1101 "
b1101 $
b1101 %
1)
1#
#150
0#
#155
1'
b11 &
1(
0+
b1100 "
b1100 $
b1100 %
0)
1#
#160
0#
#165
1.
10
03
0*
01
0,
1/
0'
1-
b100 &
0(
1+
b1011 "
b1011 $
b1011 %
1)
1#
#170
0#
#175
1'
b101 &
1(
0+
b1010 "
b1010 $
b1010 %
0)
1#
#180
0#
#185
1*
1,
0/
0'
0-
b110 &
0(
1+
b1001 "
b1001 $
b1001 %
1)
1#
#190
0#
#195
1'
b111 &
1(
0+
b1000 "
b1000 $
b1000 %
0)
1#
#200
0#
#205
12
14
0.
05
00
13
0*
11
0,
1/
0'
1-
b1000 &
0(
1+
b111 "
b111 $
b111 %
1)
1#
#210
0#
#215
1'
b1001 &
1(
0+
b110 "
b110 $
b110 %
0)
1#
#220
0#
#225
1*
1,
0/
0'
0-
b1010 &
0(
1+
b101 "
b101 $
b101 %
1)
1#
#230
0#
#235
1'
b1011 &
1(
0+
b100 "
b100 $
b100 %
0)
1#
#240
0#
#245
1.
10
03
0*
01
0,
1/
0'
1-
b1100 &
0(
1+
b11 "
b11 $
b11 %
1)
1#
#250
0#
#255
1'
b1101 &
1(
0+
b10 "
b10 $
b10 %
0)
1#
